{
    "count": 1118,
    "next": "https://pokeapi.co/api/v2/pokemon/?offset=60&limit=40",
    "previous": "https://pokeapi.co/api/v2/pokemon/?offset=0&limit=20",
    "results": [{
        "name": "spearow",
        "url": "https://pokeapi.co/api/v2/pokemon/21/"
    }, {
        "name": "fearow",
        "url": "https://pokeapi.co/api/v2/pokemon/22/"
    }, {
        "name": "ekans",
        "url": "https://pokeapi.co/api/v2/pokemon/23/"
    }, {
        "name": "arbok",
        "url": "https://pokeapi.co/api/v2/pokemon/24/"
    }, {
        "name": "pikachu",
        "url": "https://pokeapi.co/api/v2/pokemon/25/"
    }, {
        "name": "raichu",
        "url": "https://pokeapi.co/api/v2/pokemon/26/"
    }, {
        "name": "sandshrew",
        "url": "https://pokeapi.co/api/v2/pokemon/27/"
    }, {
        "name": "sandslash",
        "url": "https://pokeapi.co/api/v2/pokemon/28/"
    }, {
        "name": "nidoran-f",
        "url": "https://pokeapi.co/api/v2/pokemon/29/"
    }, {
        "name": "nidorina",
        "url": "https://pokeapi.co/api/v2/pokemon/30/"
    }, {
        "name": "nidoqueen",
        "url": "https://pokeapi.co/api/v2/pokemon/31/"
    }, {
        "name": "nidoran-m",
        "url": "https://pokeapi.co/api/v2/pokemon/32/"
    }, {
        "name": "nidorino",
        "url": "https://pokeapi.co/api/v2/pokemon/33/"
    }, {
        "name": "nidoking",
        "url": "https://pokeapi.co/api/v2/pokemon/34/"
    }, {
        "name": "clefairy",
        "url": "https://pokeapi.co/api/v2/pokemon/35/"
    }, {
        "name": "clefable",
        "url": "https://pokeapi.co/api/v2/pokemon/36/"
    }, {
        "name": "vulpix",
        "url": "https://pokeapi.co/api/v2/pokemon/37/"
    }, {
        "name": "ninetales",
        "url": "https://pokeapi.co/api/v2/pokemon/38/"
    }, {
        "name": "jigglypuff",
        "url": "https://pokeapi.co/api/v2/pokemon/39/"
    }, {
        "name": "wigglytuff",
        "url": "https://pokeapi.co/api/v2/pokemon/40/"
    }, {
        "name": "zubat",
        "url": "https://pokeapi.co/api/v2/pokemon/41/"
    }, {
        "name": "golbat",
        "url": "https://pokeapi.co/api/v2/pokemon/42/"
    }, {
        "name": "oddish",
        "url": "https://pokeapi.co/api/v2/pokemon/43/"
    }, {
        "name": "gloom",
        "url": "https://pokeapi.co/api/v2/pokemon/44/"
    }, {
        "name": "vileplume",
        "url": "https://pokeapi.co/api/v2/pokemon/45/"
    }, {
        "name": "paras",
        "url": "https://pokeapi.co/api/v2/pokemon/46/"
    }, {
        "name": "parasect",
        "url": "https://pokeapi.co/api/v2/pokemon/47/"
    }, {
        "name": "venonat",
        "url": "https://pokeapi.co/api/v2/pokemon/48/"
    }, {
        "name": "venomoth",
        "url": "https://pokeapi.co/api/v2/pokemon/49/"
    }, {
        "name": "diglett",
        "url": "https://pokeapi.co/api/v2/pokemon/50/"
    }, {
        "name": "dugtrio",
        "url": "https://pokeapi.co/api/v2/pokemon/51/"
    }, {
        "name": "meowth",
        "url": "https://pokeapi.co/api/v2/pokemon/52/"
    }, {
        "name": "persian",
        "url": "https://pokeapi.co/api/v2/pokemon/53/"
    }, {
        "name": "psyduck",
        "url": "https://pokeapi.co/api/v2/pokemon/54/"
    }, {
        "name": "golduck",
        "url": "https://pokeapi.co/api/v2/pokemon/55/"
    }, {
        "name": "mankey",
        "url": "https://pokeapi.co/api/v2/pokemon/56/"
    }, {
        "name": "primeape",
        "url": "https://pokeapi.co/api/v2/pokemon/57/"
    }, {
        "name": "growlithe",
        "url": "https://pokeapi.co/api/v2/pokemon/58/"
    }, {
        "name": "arcanine",
        "url": "https://pokeapi.co/api/v2/pokemon/59/"
    }, {
        "name": "poliwag",
        "url": "https://pokeapi.co/api/v2/pokemon/60/"
    }]
}